%YAML 1.1
%TAG !u! tag:unity3d.com,2011:
--- !u!114 &11400000
MonoBehaviour:
  m_ObjectHideFlags: 0
  m_CorrespondingSourceObject: {fileID: 0}
  m_PrefabInstance: {fileID: 0}
  m_PrefabAsset: {fileID: 0}
  m_GameObject: {fileID: 0}
  m_Enabled: 1
  m_EditorHideFlags: 0
  m_Script: {fileID: 11500000, guid: 01504f3036486f6408a129b48e50eb54, type: 3}
  m_Name: GameStats
  m_EditorClassIdentifier: 
  BeeSpawnSpeed: 1
  MaxBees: 10
  MaxEnemies: 3
  ScoreObjectSpawnSpeed: 2
  EnemySpawnDelay: 5
  WinScore: 5
  EnemySpawnRate: 10
  PickupSpawnRate: 10
