%YAML 1.1
%TAG !u! tag:unity3d.com,2011:
--- !u!1045 &1
EditorBuildSettings:
  m_ObjectHideFlags: 0
  serializedVersion: 2
  m_Scenes:
  - enabled: 0
    path: Assets/Scenes/SampleScene.unity
    guid: 2cda990e2423bbf4892e6590ba056729
  - enabled: 1
    path: Assets/Scenes/Menus.unity
    guid: 4230716af0f90da478ba4d599e8564b9
  - enabled: 1
    path: Assets/Scenes/MainGame.unity
    guid: 4d3097b6d00adc6478438dce2ea8ffbc
  m_configObjects: {}
